[
  { "title": "La amenaza fantasma", "episode": 1 },
  { "title": "El ataque de los clones", "episode": 2 },
  { "title": "La venganza de los Sith", "episode": 3 },
  { "title": "Una nueva esperanza", "episode": 4 },
  { "title": "El Imperio contraataca", "episode": 5 },
  { "title": "El retorno del Jedi", "episode": 6 },
  { "title": "El despertar de la Fuerza", "episode": 7 },
  { "title": "Los últimos Jedi", "episode": 8 }
]
